{
  "type": "object",
  "required": ["@id", "packageContent", "catalogEntry"],
  "properties": {
    "@id": { "type": "string" },
    "packageContent": { "type": "string" },
    "catalogEntry": {
      "type": "object",
      "required": ["@id", "authors", "dependencyGroups", "id", "packageContent", "summary", "version"],
      "properties": {
        "@id": { "type": "string" },
        "authors": { "const": "" },
        "dependencyGroups": { "const": [] },
        "id": { "type": "string" },
        "packageContent": { "type": "string" },
        "summary": { "const": "" },
        "tags": { "type": "string" },
        "version": { "type": "string" }
      }
    }
  }
}
