{
  "type": "object",
  "required": ["totalHits", "data"],
  "properties": {
    "totalHits": { "type": "integer" },
    "data": {
      "type": "array",
      "items": {
        "type": "object",
        "required": ["@type", "authors", "id", "summary", "title", "totalDownloads", "verified", "versions"],
        "properties": {
          "@type": { "const": "Package" },
          "authors": { "const": "" },
          "id": { "type": "string" },
          "summary": { "const": "" },
          "title": { "type": "string" },
          "totalDownloads": { "const": 0 },
          "verified": { "const": true },
          "tags": { "type": "string" },
          "versions": {
            "type": "array",
            "items": {
              "type": "object",
              "required": ["@id", "version", "downloads"],
              "properties": {
                "@id": { "type": "string" },
                "version": { "type": "string" },
                "downloads": { "const": 0 }
              }
            }
          }
        }
      }
    }
  }
}
